\relax 
\providecommand\zref@newlabel[2]{}
\catcode`"\active
\select@language{german}
\@writefile{toc}{\select@language{german}}
\@writefile{lof}{\select@language{german}}
\@writefile{lot}{\select@language{german}}
\@writefile{toc}{\contentsline {chapter}{\numberline {1}Inflation Testing}{1}}
\@writefile{lof}{\addvspace {10\p@ }}
\@writefile{lot}{\addvspace {10\p@ }}
\newlabel{cha:Inflation Testing}{{1}{1}}
\@writefile{toc}{\contentsline {section}{\numberline {1.1}Features}{1}}
\newlabel{sec:Features}{{1.1}{1}}
\@writefile{toc}{\contentsline {section}{\numberline {1.2}Procedure}{1}}
\newlabel{sec:Procedure}{{1.2}{1}}
\@writefile{toc}{\contentsline {subsection}{\numberline {1.2.1}PYTHON: Tracker Detection}{1}}
\newlabel{sub:Tracker Detection}{{1.2.1}{1}}
